Journal (reproducible report)
…
Here’s an even lower level header

2 Challenge 2

Last compiled: 2020-12-03

2.1 get data from API

## # A tibble: 380 x 15
##    Name  Date.time Temperature Wind.Chill Heat.Index Chance.Precipit…
##    <chr> <chr>           <dbl>      <dbl> <lgl>                 <dbl>
##  1 Hamb… 11/30/20…         0.9       -3   NA                      100
##  2 Hamb… 11/30/20…         1         -2.9 NA                      100
##  3 Hamb… 11/30/20…         1.2       -2.7 NA                      100
##  4 Hamb… 11/30/20…         1.4       -2.4 NA                      100
##  5 Hamb… 12/01/20…         1.8       -1.9 NA                      100
##  6 Hamb… 12/01/20…         2.2       -1.4 NA                      100
##  7 Hamb… 12/01/20…         2.4       -0.9 NA                       38
##  8 Hamb… 12/01/20…         2.5       -0.5 NA                       38
##  9 Hamb… 12/01/20…         2.4       -0.2 NA                       38
## 10 Hamb… 12/01/20…         2.4       -0.1 NA                       38
## # … with 370 more rows, and 9 more variables: Precipitation <dbl>, Snow <dbl>,
## #   Snow.Depth <dbl>, Wind.Speed <dbl>, Wind.Gust <dbl>, Visibility <dbl>,
## #   Cloud.Cover <dbl>, Relative.Humidity <dbl>, Conditions <chr>
…
##    <date>                    <int>
##  1 2019-01-01               114881
##  2 2019-02-01               204992
##  3 2019-03-01               297172
##  4 2019-04-01               296398
##  5 2019-05-01               294852
##  6 2019-06-01               292371
##  7 2019-07-01               289082
##  8 2019-08-01               281951
##  9 2019-09-01               273682
## 10 2019-10-01               263187
## 11 2019-11-01               252265
## 12 2019-12-01               244206

## # A tibble: 10,236 x 2
##    loan_id         V1
##    <fct>        <dbl>
##  1 803169782934    12
##  2 154577766638    11
##  3 383196593445    11
##  4 551117353033    11
##  5 798681965897    11
##  6 864557250398    11
##  7 959837071617    11
##  8 105141975802    10
##  9 106025030330    10
## 10 107568736660    10
## # … with 10,226 more rows

## # A tibble: 6,333 x 5
##    loan_id  monthly_reporting… current_loan_deli… seller_name        current_upb
##    <fct>    <date>                          <dbl> <fct>                    <dbl>
##  1 2778798… 2019-08-01                          1 PENNYMAC CORP.         994729.
##  2 3258573… 2019-09-01                          1 QUICKEN LOANS INC.     949644.
##  3 9909517… 2019-10-01                          1 QUICKEN LOANS INC.     921828.
##  4 2453446… 2019-12-01                          1 UNITED SHORE FINA…     889063.
##  5 9818515… 2019-11-01                          1 OTHER                  888429.
##  6 3975089… 2019-09-01                          1 QUICKEN LOANS INC.     724656.
##  7 4766945… 2019-08-01                          1 OTHER                  723469.
##  8 2567398… 2019-09-01                          1 OTHER                  722785.
##  9 4318635… 2019-09-01                          1 PENNYMAC CORP.         720986.
## 10 9556499… 2019-12-01                          3 OTHER                  720864.
## # … with 6,323 more rows
…
